{
	"additionalNodes": [],
	"additionalParameters": {
		"root": {
			"height": 88,
			"width": 180
		}
	},
	"inputs": [],
	"outputs": [],
	"properties": {
		"78j2OU85qgoRZXx6H0F10adikiZ9r81Y": {
			"height": 54,
			"title": "nota_hru_ai.endMission",
			"width": 213,
			"x": 988,
			"y": -80
		},
		"DVFkfHcSDMnbiHDP8x85Mn87iVe3ZHny": {
			"height": 132,
			"title": "formation.moveCustomGroup",
			"width": 357,
			"x": 971,
			"y": 34
		},
		"hpmy8xrqUS4UhcIN62tqwyg5gyckykdJ": {
			"height": 60,
			"title": "repeat",
			"width": 131,
			"x": 450,
			"y": -137
		},
		"ox6wmwqO6n7CfMUNsuJqxJCAZXL0uhW9": {
			"height": 70,
			"title": "parallel",
			"width": 202,
			"x": 211,
			"y": 9
		},
		"qfgCrQ1CSaZdESNgzHZeaTWn9lmHM91h": {
			"height": 90,
			"title": "luaCondition",
			"width": 444,
			"x": 455,
			"y": -33
		},
		"ssyZUFNOlP3iuBhkQiHybXrU1zl5kJ1M": {
			"height": 94,
			"title": "store",
			"width": 292,
			"x": 617,
			"y": -153
		}
	},
	"roles": [ {
		"categories": [],
		"name": "Role 0"
	} ],
	"root": {
		"children": [ {
			"children": [ {
				"children": [],
				"id": "ssyZUFNOlP3iuBhkQiHybXrU1zl5kJ1M",
				"nodeType": "luaCommand",
				"parameters": [ {
					"name": "var",
					"value": "uts"
				}, {
					"name": "value",
					"value": "nota_hru_ai.evalUnits(uts)"
				}, {
					"name": "scriptName",
					"value": "store"
				} ],
				"scriptName": "store"
			} ],
			"id": "hpmy8xrqUS4UhcIN62tqwyg5gyckykdJ",
			"nodeType": "repeat",
			"parameters": []
		}, {
			"children": [ {
				"children": [],
				"id": "78j2OU85qgoRZXx6H0F10adikiZ9r81Y",
				"nodeType": "luaCommand",
				"parameters": [ {
					"name": "scriptName",
					"value": "nota_hru_ai.endMission"
				} ],
				"scriptName": "nota_hru_ai.endMission"
			}, {
				"children": [],
				"id": "DVFkfHcSDMnbiHDP8x85Mn87iVe3ZHny",
				"nodeType": "luaCommand",
				"parameters": [ {
					"name": "groupDefintion",
					"value": "uts.units"
				}, {
					"name": "position",
					"value": "Vec3(Game.mapSizeX - 50, 0, 0)"
				}, {
					"name": "formation",
					"value": "nota_hru_ai.currentFormation()"
				}, {
					"name": "fight",
					"value": "true"
				}, {
					"name": "scriptName",
					"value": "formation.moveCustomGroup"
				} ],
				"scriptName": "formation.moveCustomGroup"
			} ],
			"id": "qfgCrQ1CSaZdESNgzHZeaTWn9lmHM91h",
			"nodeType": "luaCondition",
			"parameters": [ {
				"name": "expression",
				"value": "core.MissionInfo().score > 45"
			}, {
				"name": "repeat",
				"value": "true"
			} ]
		} ],
		"id": "ox6wmwqO6n7CfMUNsuJqxJCAZXL0uhW9",
		"nodeType": "parallel",
		"parameters": [ {
			"name": "mode",
			"value": "all-success"
		} ]
	}
}